// Jest Snapshot v1, https://goo.gl/fbAQLP

exports[`Search component It should match with snapshot 1`] = `
<div>
  <header class="header">
    <h1 class="header-title"><a href="/">Creditu Players Search</a></h1>
    <p class="header-subtitle">
      using

    </p>
  </header>
  <div class="container">
    <ais-instant-search search-client="[object Object]" index-name="creditu_players">
      <div class="search-panel">
        <div class="search-panel__results">
          <ais-search-box placeholder="Search here…" class="searchbox"></ais-search-box>
          <ais-hits></ais-hits>
          <div class="pagination">
            <ais-pagination></ais-pagination>
          </div>
        </div>
      </div>
    </ais-instant-search>
  </div>
</div>
`;
